<?xml version="1.0" encoding="UTF-8"?>
<svg width="31px" height="24px" viewBox="0 0 31 24" version="1.1" xmlns="http://www.w3.org/2000/svg" xmlns:xlink="http://www.w3.org/1999/xlink">
    <!-- Generator: Sketch 63.1 (92452) - https://sketch.com -->
    <title>Employees_icon</title>
    <desc>Created with Sketch.</desc>
    <g id="Icons" stroke="none" stroke-width="1" fill="none" fill-rule="evenodd">
        <g id="Employees_icon" fill="white" fill-rule="nonzero">
            <path d="M9.64824121,13.8282211 C11.681005,13.8282211 13.5575879,14.4957588 15.0705528,15.623397 C17.1503518,17.1731457 18.5439196,19.5912362 18.7145729,22.3403819 C18.7266332,22.5297286 18.7326633,22.7208844 18.7326633,22.9132462 L18.7326633,22.9132462 L18.7326633,23.9914372 L5.09814413e-13,23.9914372 L5.09814413e-13,22.9132462 C5.09814413e-13,17.8955578 4.06733668,13.8282211 9.08502513,13.8282211 L9.08502513,13.8282211 Z M22.4164824,12.0818894 C27.080201,12.0818894 30.8743719,15.8760603 30.8743719,20.5391759 L30.8743719,20.5391759 L30.8743719,22.3403819 L20.5272362,22.3403819 C20.4615075,21.0722412 20.1792965,19.8408844 19.6848241,18.6722412 C19.1360804,17.3745528 18.3509548,16.2095276 17.3511558,15.2097286 C17.0122613,14.8708342 16.6546734,14.5566633 16.278995,14.2684221 C17.7805025,12.9104322 19.7692462,12.0818894 21.9485427,12.0818894 L21.9485427,12.0818894 Z M9.36645226,0.00856281407 C12.4739095,0.00856281407 15.0019296,2.68896482 15.0019296,5.98359799 C15.0019296,9.27823116 12.4738492,11.9586332 9.36645226,11.9586332 C6.25905528,11.9586332 3.73103518,9.27823116 3.73103518,5.98359799 C3.73103518,2.68896482 6.25905528,0.00856281407 9.36645226,0.00856281407 Z M22.1787739,0.863577889 C24.8289648,0.863577889 26.9971055,3.13398995 27.0203216,5.94367839 C27.0314774,7.29955779 26.546593,8.58138693 25.6548543,9.55302513 C24.747196,10.5420905 23.5291055,11.0927638 22.2250251,11.1035578 C22.212,11.1036784 22.1990352,11.1036784 22.1860704,11.1036784 C20.8964623,11.1036784 19.6847035,10.5741106 18.7699296,9.60982915 C17.8623317,8.65296482 17.3563417,7.37933668 17.3451256,6.02351759 C17.3339698,4.66769849 17.8188543,3.38586935 18.710593,2.41423116 C19.6182513,1.42510553 20.8363417,0.874492462 22.1404221,0.863698492 L22.1404221,0.863698492 Z" id="Combined-Shape"></path>
        </g>
    </g>
</svg>